Spatial Resampling by Julia Silge
…
drought_result <- 
  workflow(estimate ~ DSCI, linear_reg()) %>% 
  fit_resamples(folds, control = control_resamples(save_pred = TRUE))

collect_predictions(drought_result)

# A tibble: 254 × 5
   id      .pred  .row estimate .config             
   <chr>   <dbl> <int>    <dbl> <chr>               
 1 Fold01 56293.     1    56784 Preprocessor1_Model1
 2 Fold01 53812.     2    41846 Preprocessor1_Model1
 3 Fold01 51421.     6    61543 Preprocessor1_Model1
 4 Fold01 56358.    10    44507 Preprocessor1_Model1
 5 Fold01 57224.    11    41568 Preprocessor1_Model1
 6 Fold01 57212.    17    41170 Preprocessor1_Model1
 7 Fold01 55963.    18    40946 Preprocessor1_Model1
 8 Fold01 54367.    23    40083 Preprocessor1_Model1
 9 Fold01 56017.    24    47301 Preprocessor1_Model1
10 Fold01 51866.    37    61915 Preprocessor1_Model1
# … with 244 more rows
…
